ignored line
ignored line
ignored line
ignored line
ignored line
ignored line
ignored line
1 1
0 0 0
1 2
1 0 0
1 3
0 1 0
1 4
1 1 0
1 5
0 0 1
1 6
1 0 1
1 7
0 1 1
1 8
1 1 1
1 9
0.3333 0.3333 0.3333
1 10
0.6666 0.3333 0.3333
1 11
0.3333 0.6666 0.3333
1 12
0.6666 0.6666 0.3333
1 13
0.3333 0.3333 0.6666
1 14
0.6666 0.3333 0.6666
1 15
0.3333 0.6666 0.6666
1 16
0.6666 0.6666 0.6666
2 1
1 9
2 2
2 10
2 3
4 12
2 4
3 11
2 5
5 13
2 6
6 14
2 7
8 16
2 8
7 15
2 9
9 10
2 10
10 12
2 11
9 11
2 12
11 12
2 13
9 13
2 14
10 14
2 15
12 16
2 16
11 15
2 17
13 14
2 18
14 16
2 19
13 15
2 20
15 16
ignored line
ignored line
ignored line
ignored line
ignored line
ignored line
ignored line
